[
    {
        "id": "4e190166.121e28",
        "type": "tab",
        "label": "Auth-Token",
        "disabled": false,
        "info": ""
    },
    {
        "id": "ce910788.3497c",
        "type": "tab",
        "label": "Valeurs",
        "disabled": false,
        "info": ""
    },
    {
        "id": "1f19d480.92fc74",
        "type": "ui_tab",
        "z": "",
        "name": "DataConnect-Proto",
        "icon": "fa-fire",
        "disabled": false,
        "hidden": false
    },
    {
        "id": "8448d19a.8ec28",
        "type": "ui_group",
        "z": "",
        "name": "Data",
        "tab": "1f19d480.92fc74",
        "order": 2,
        "disp": false,
        "width": "12",
        "collapse": false
    },
    {
        "id": "66d80aab.85fa1c",
        "type": "ui_base",
        "theme": {
            "name": "theme-dark",
            "lightTheme": {
                "default": "#0094CE",
                "baseColor": "#0094CE",
                "baseFont": "-apple-system,BlinkMacSystemFont,Segoe UI,Roboto,Oxygen-Sans,Ubuntu,Cantarell,Helvetica Neue,sans-serif",
                "edited": true,
                "reset": false
            },
            "darkTheme": {
                "default": "#097479",
                "baseColor": "#097479",
                "baseFont": "-apple-system,BlinkMacSystemFont,Segoe UI,Roboto,Oxygen-Sans,Ubuntu,Cantarell,Helvetica Neue,sans-serif",
                "edited": true,
                "reset": false
            },
            "customTheme": {
                "name": "Untitled Theme 1",
                "default": "#4B7930",
                "baseColor": "#4B7930",
                "baseFont": "-apple-system,BlinkMacSystemFont,Segoe UI,Roboto,Oxygen-Sans,Ubuntu,Cantarell,Helvetica Neue,sans-serif"
            },
            "themeState": {
                "base-color": {
                    "default": "#097479",
                    "value": "#097479",
                    "edited": false
                },
                "page-titlebar-backgroundColor": {
                    "value": "#097479",
                    "edited": false
                },
                "page-backgroundColor": {
                    "value": "#111111",
                    "edited": false
                },
                "page-sidebar-backgroundColor": {
                    "value": "#000000",
                    "edited": false
                },
                "group-textColor": {
                    "value": "#0eb8c0",
                    "edited": false
                },
                "group-borderColor": {
                    "value": "#555555",
                    "edited": false
                },
                "group-backgroundColor": {
                    "value": "#333333",
                    "edited": false
                },
                "widget-textColor": {
                    "value": "#eeeeee",
                    "edited": false
                },
                "widget-backgroundColor": {
                    "value": "#097479",
                    "edited": false
                },
                "widget-borderColor": {
                    "value": "#333333",
                    "edited": false
                },
                "base-font": {
                    "value": "-apple-system,BlinkMacSystemFont,Segoe UI,Roboto,Oxygen-Sans,Ubuntu,Cantarell,Helvetica Neue,sans-serif"
                }
            },
            "angularTheme": {
                "primary": "indigo",
                "accents": "blue",
                "warn": "red",
                "background": "grey"
            }
        },
        "site": {
            "name": "Node-RED Dashboard",
            "hideToolbar": "false",
            "allowSwipe": "false",
            "lockMenu": "false",
            "allowTempTheme": "true",
            "dateFormat": "DD/MM/YYYY",
            "sizes": {
                "sx": 48,
                "sy": 48,
                "gx": 6,
                "gy": 6,
                "cx": 6,
                "cy": 6,
                "px": 0,
                "py": 0
            }
        }
    },
    {
        "id": "40994a81.7d443c",
        "type": "ui_group",
        "z": "",
        "name": "Charts",
        "tab": "5ed59e22.4fe368",
        "order": 2,
        "disp": false,
        "width": "6"
    },
    {
        "id": "f6c2c6bb.7f4cf",
        "type": "ui_group",
        "z": "",
        "name": "Inputs",
        "tab": "5ed59e22.4fe368",
        "order": 1,
        "disp": false,
        "width": "6"
    },
    {
        "id": "5ed59e22.4fe368",
        "type": "ui_tab",
        "z": "",
        "name": "Charts",
        "icon": "dashboard",
        "order": 2
    },
    {
        "id": "3350c8e.cd02338",
        "type": "ui_group",
        "z": "",
        "name": "Login",
        "tab": "1f19d480.92fc74",
        "order": 1,
        "disp": true,
        "width": "12",
        "collapse": false
    },
    {
        "id": "f0824586.ce1b38",
        "type": "function",
        "z": "4e190166.121e28",
        "name": "IDENTIFIANTS",
        "func": "global.set(\"client_id\",\"CHANGEME\");\nglobal.set(\"client_secret\",\"CHANGEME\");\nglobal.set(\"redirect_uri\",\"CHANGEME\");\n\n\n\nreturn msg;",
        "outputs": 1,
        "noerr": 0,
        "x": 290,
        "y": 45,
        "wires": [
            []
        ]
    },
    {
        "id": "193e6967.e32ba7",
        "type": "inject",
        "z": "4e190166.121e28",
        "name": "Init",
        "topic": "",
        "payload": "",
        "payloadType": "date",
        "repeat": "",
        "crontab": "",
        "once": true,
        "onceDelay": 0.1,
        "x": 100,
        "y": 45,
        "wires": [
            [
                "f0824586.ce1b38"
            ]
        ]
    },
    {
        "id": "71a7788a.270858",
        "type": "http request",
        "z": "4e190166.121e28",
        "name": "AuthCode",
        "method": "GET",
        "ret": "txt",
        "paytoqs": false,
        "url": "",
        "tls": "",
        "proxy": "",
        "authType": "basic",
        "x": 105,
        "y": 180,
        "wires": [
            [
                "350b0f9b.62adb"
            ]
        ]
    },
    {
        "id": "350b0f9b.62adb",
        "type": "split",
        "z": "4e190166.121e28",
        "name": "",
        "splt": ";",
        "spltType": "str",
        "arraySplt": 1,
        "arraySpltType": "len",
        "stream": false,
        "addname": "",
        "x": 290,
        "y": 180,
        "wires": [
            [
                "95c801ec.5b6f7"
            ]
        ]
    },
    {
        "id": "95c801ec.5b6f7",
        "type": "function",
        "z": "4e190166.121e28",
        "name": "Recup_Code_et_UP",
        "func": "regex = new RegExp(global.get(\"redirect_uri\"),'g');\n\nif (msg.payload.match(regex)) {\n\n    chaine = msg.payload.split(\"=\");\n    code = chaine[2].split(\"&\");\n    global.set(\"code\",code[0]);\n    up_id = chaine[4].split('\"')[0];\n    global.set(\"up_id\",up_id);\n    \n    return { payload : code[0], \"up_id\" : up_id  };\n    \n} \n\nelse {return 0;}",
        "outputs": 1,
        "noerr": 0,
        "x": 550,
        "y": 180,
        "wires": [
            [
                "5e8217b4.f724a"
            ]
        ],
        "info": "Ce bloc récupère les paramètres complémentaires d'authentification, qui sont renvoyés par l'API DataConnect dans une requête GET."
    },
    {
        "id": "69eb392.1ade7c8",
        "type": "http request",
        "z": "4e190166.121e28",
        "name": "AuthToken",
        "method": "POST",
        "ret": "txt",
        "paytoqs": false,
        "url": "",
        "tls": "",
        "proxy": "",
        "authType": "basic",
        "x": 520,
        "y": 255,
        "wires": [
            [
                "d5362a0f.fc7f2"
            ]
        ]
    },
    {
        "id": "5e8217b4.f724a",
        "type": "function",
        "z": "4e190166.121e28",
        "name": "Headers POST",
        "func": "msg.headers = {};\nmsg.headers['Content-Type'] = 'application/x-www-form-urlencoded';\nmsg.headers['accept'] = 'text/html';\n\n\nreturn msg;",
        "outputs": 1,
        "noerr": 0,
        "x": 125,
        "y": 255,
        "wires": [
            [
                "be24459e.16c428"
            ]
        ]
    },
    {
        "id": "559feee8.4184f",
        "type": "debug",
        "z": "4e190166.121e28",
        "name": "",
        "active": true,
        "tosidebar": true,
        "console": false,
        "tostatus": false,
        "complete": "true",
        "targetType": "full",
        "x": 500,
        "y": 375,
        "wires": []
    },
    {
        "id": "be24459e.16c428",
        "type": "function",
        "z": "4e190166.121e28",
        "name": "URL+Data",
        "func": "\n\nmsg.url={}\nmsg.url = \"https://gw.hml.api.enedis.fr/v1/oauth2/token?redirect_uri=\"+global.get(\"redirect_uri\");\n\nmsg.payload = \"grant_type=authorization_code&client_id=\"+global.get(\"client_id\")+\"&client_secret=\"+global.get(\"client_secret\")+\"&code=\"+msg.payload;\n\nreturn msg;",
        "outputs": 1,
        "noerr": 0,
        "x": 310,
        "y": 255,
        "wires": [
            [
                "69eb392.1ade7c8"
            ]
        ]
    },
    {
        "id": "1d17f313.6f768d",
        "type": "http request",
        "z": "ce910788.3497c",
        "name": "",
        "method": "GET",
        "ret": "txt",
        "paytoqs": false,
        "url": "",
        "tls": "",
        "proxy": "",
        "authType": "basic",
        "x": 130,
        "y": 270,
        "wires": [
            [
                "4ad4d5d0.24a274"
            ]
        ]
    },
    {
        "id": "4ad4d5d0.24a274",
        "type": "json",
        "z": "ce910788.3497c",
        "name": "",
        "property": "payload",
        "action": "",
        "pretty": false,
        "x": 286,
        "y": 270,
        "wires": [
            [
                "56757e3f.0e9ee"
            ]
        ]
    },
    {
        "id": "8d74cd01.096ec",
        "type": "ui_chart",
        "z": "ce910788.3497c",
        "name": "",
        "group": "8448d19a.8ec28",
        "order": 4,
        "width": 0,
        "height": 0,
        "label": "CourbeCharge",
        "chartType": "line",
        "legend": "false",
        "xformat": "auto",
        "interpolate": "linear",
        "nodata": "",
        "dot": false,
        "ymin": "",
        "ymax": "",
        "removeOlder": 1,
        "removeOlderPoints": "",
        "removeOlderUnit": "3600",
        "cutout": 0,
        "useOneColor": false,
        "colors": [
            "#1f77b4",
            "#aec7e8",
            "#ff7f0e",
            "#2ca02c",
            "#98df8a",
            "#d62728",
            "#ff9896",
            "#9467bd",
            "#c5b0d5"
        ],
        "useOldStyle": false,
        "outputs": 1,
        "x": 588.5,
        "y": 373,
        "wires": [
            []
        ]
    },
    {
        "id": "d5362a0f.fc7f2",
        "type": "json",
        "z": "4e190166.121e28",
        "name": "",
        "property": "payload",
        "action": "",
        "pretty": false,
        "x": 95,
        "y": 330,
        "wires": [
            [
                "6e073dda.206c7c"
            ]
        ]
    },
    {
        "id": "6e073dda.206c7c",
        "type": "function",
        "z": "4e190166.121e28",
        "name": "Global_Token",
        "func": "global.set(\"refresh_token\",msg.payload.refresh_token);\nglobal.set(\"access_token\",msg.payload.access_token);\n\nreturn {payload : \"OK\"};",
        "outputs": 1,
        "noerr": 0,
        "x": 320,
        "y": 330,
        "wires": [
            [
                "559feee8.4184f",
                "a4aa882f.a44f8"
            ]
        ]
    },
    {
        "id": "c16cf9d8.77c76",
        "type": "ui_button",
        "z": "ce910788.3497c",
        "name": "",
        "group": "8448d19a.8ec28",
        "order": 3,
        "width": 0,
        "height": 0,
        "passthru": false,
        "label": "Requete Valeurs",
        "tooltip": "",
        "color": "",
        "bgcolor": "",
        "icon": "fa-cogs",
        "payload": "1",
        "payloadType": "str",
        "topic": "",
        "x": 123.5,
        "y": 178,
        "wires": [
            [
                "258a405b.f3814"
            ]
        ]
    },
    {
        "id": "258a405b.f3814",
        "type": "function",
        "z": "ce910788.3497c",
        "name": "URL+token",
        "func": "msg.url = \"https://gw.hml.api.enedis.fr/v3/metering_data/consumption_load_curve\";\nmsg.url += \"?start=\"+flow.get(\"start\")+\"&end=\"+flow.get(\"end\")+\"&usage_point_id=\"+global.get(\"up_id\");\n\nmsg.headers = {} ;\nmsg.headers[\"Accept\"] = \"application/json\";\nmsg.headers[\"Authorization\"] = \"Bearer \"+ global.get(\"access_token\");\n\nreturn msg;",
        "outputs": 1,
        "noerr": 0,
        "x": 308.5,
        "y": 178,
        "wires": [
            [
                "1d17f313.6f768d"
            ]
        ]
    },
    {
        "id": "6ed7e8fa.bba13",
        "type": "debug",
        "z": "ce910788.3497c",
        "name": "",
        "active": true,
        "tosidebar": true,
        "console": false,
        "tostatus": false,
        "complete": "true",
        "targetType": "full",
        "x": 440,
        "y": 90,
        "wires": []
    },
    {
        "id": "172e4748.571b89",
        "type": "ui_date_picker",
        "z": "ce910788.3497c",
        "name": "",
        "label": "Start",
        "group": "8448d19a.8ec28",
        "order": 1,
        "width": 0,
        "height": 0,
        "passthru": true,
        "topic": "",
        "x": 97,
        "y": 67,
        "wires": [
            [
                "ce0c3659.b7a67"
            ]
        ]
    },
    {
        "id": "ea05fb71.b37338",
        "type": "ui_date_picker",
        "z": "ce910788.3497c",
        "name": "",
        "label": "End",
        "group": "8448d19a.8ec28",
        "order": 2,
        "width": 0,
        "height": 0,
        "passthru": true,
        "topic": "",
        "x": 97,
        "y": 112,
        "wires": [
            [
                "a51324b3.9e71f8"
            ]
        ]
    },
    {
        "id": "ce0c3659.b7a67",
        "type": "function",
        "z": "ce910788.3497c",
        "name": "setStartDate",
        "func": "\nstart = new Date(msg.payload);\nstart = start.toISOString().slice(0,10);\nflow.set(\"start\", start)\n\nreturn msg;",
        "outputs": 1,
        "noerr": 0,
        "x": 252,
        "y": 67,
        "wires": [
            [
                "6ed7e8fa.bba13"
            ]
        ]
    },
    {
        "id": "a51324b3.9e71f8",
        "type": "function",
        "z": "ce910788.3497c",
        "name": "setEndDate",
        "func": "\nend = new Date(msg.payload);\nend = end.toISOString().slice(0,10);\nflow.set(\"end\", end)\n\nreturn msg;",
        "outputs": 1,
        "noerr": 0,
        "x": 252,
        "y": 112,
        "wires": [
            [
                "6ed7e8fa.bba13"
            ]
        ]
    },
    {
        "id": "5d01c454.4cb734",
        "type": "inject",
        "z": "ce910788.3497c",
        "name": "ClearChart",
        "topic": "",
        "payload": "[]",
        "payloadType": "json",
        "repeat": "",
        "crontab": "",
        "once": true,
        "onceDelay": 0.1,
        "x": 398.5,
        "y": 418,
        "wires": [
            [
                "8d74cd01.096ec"
            ]
        ]
    },
    {
        "id": "a6c2badb.c1e018",
        "type": "ui_button",
        "z": "4e190166.121e28",
        "name": "",
        "group": "3350c8e.cd02338",
        "order": 1,
        "width": "4",
        "height": "1",
        "passthru": false,
        "label": "Login + Token",
        "tooltip": "",
        "color": "",
        "bgcolor": "",
        "icon": "",
        "payload": "1",
        "payloadType": "str",
        "topic": "",
        "x": 125,
        "y": 105,
        "wires": [
            [
                "a6eba062.ac40c8"
            ]
        ]
    },
    {
        "id": "56757e3f.0e9ee",
        "type": "function",
        "z": "ce910788.3497c",
        "name": "AutoChart",
        "func": "longueur = Object.keys(msg.payload.usage_point[0].meter_reading.interval_reading).length;\ndate = new Date(flow.get(\"start\"));\nabs = date.getTime(); //FIXME Gestion de l'heure d'été\nstep = 30*60*1000; //pas de 30min\n\nchart = [{\n\"series\": [\"Pmax\"],\n\"data\":\n    [[{ \"x\":abs, \"y\": 0 },\n    ]],\n\"labels\": [\"Puissance Crête\"]\n}];\n\nfor (i=0; i< longueur; i++){\n    abs+= step;\n chart[0].data[0][i] = {\"x\" : abs, \"y\": msg.payload.usage_point[0].meter_reading.interval_reading[i].value};\n}\n\nmsg.payload = chart;\n\nreturn msg;\n\n",
        "outputs": 1,
        "noerr": 0,
        "x": 128.5,
        "y": 373,
        "wires": [
            [
                "8d74cd01.096ec"
            ]
        ]
    },
    {
        "id": "a4aa882f.a44f8",
        "type": "ui_text",
        "z": "4e190166.121e28",
        "group": "3350c8e.cd02338",
        "order": 5,
        "width": 0,
        "height": 0,
        "name": "Token",
        "label": "Token",
        "format": "{{msg.payload}}",
        "layout": "row-spread",
        "x": 500,
        "y": 330,
        "wires": []
    },
    {
        "id": "f0582cc8.997418",
        "type": "comment",
        "z": "4e190166.121e28",
        "name": "README",
        "info": "## Licence\nCode produit lors du hackathon \"DataConnect\" des Consometers en avril 2019 : https://wiki.consometers.org/doku.php?id=projets:dataconnect\nPlacé sous Licence EUPL 1.2 (voir https://eupl.eu/1.2/fr/)\nAuteur : Jaxom <jaxom@tchack.xyz>\n\n## Fonction\nCes deux Flows gèrent l'authentification sur l'API DataConnect et la requête de données de courbe de charge (pas 30min) dans la version \"bac à sable\".\nVoir https://datahub-enedis.fr/data-connect/\nLes données d'identification sont stockées en variables globales.\nLes données de courbe de charge sont directement traitées et envoyées au module de tracé de courbe.\n\n## Dépendances\nCe code utilise la bibliothèque complémentaire \"nodered-dashboard\".\n\n## Usage\n1. Placer les différents identifiants obtenus auprès d'Enedis dans le bloc fonction \"IDENTIFIANTS\"\n2. Déployer les Flows et se rendre sur la page web \"~/ui\"\n3. Cliquer sur le bouton \"Login\" pour obtenir un token\n4. Choisir les dates de l'intervalle de requête\n5. Cliquer sur \"Requete Valeur\" pour émettre la requête à l'API DataConnect",
        "x": 495,
        "y": 45,
        "wires": []
    },
    {
        "id": "a6eba062.ac40c8",
        "type": "function",
        "z": "4e190166.121e28",
        "name": "Format_URL_BacASable",
        "func": "\n\nmsg.url={}\nmsg.url = \"https://gw.hml.api.enedis.fr/group/espace-particuliers/consentement-linky/oauth2/authorize?client_id=\"+global.get(\"client_id\")+\"&state=fz80ac793&duration=P4M&response_type=code&redirect_uri=\"+global.get(\"redirect_uri\");\n\nreturn msg;",
        "outputs": 1,
        "noerr": 0,
        "x": 350,
        "y": 105,
        "wires": [
            [
                "71a7788a.270858"
            ]
        ],
        "info": "Adresse de l'API de test DataConnect\nLe paramètre \"state\" est fictif."
    }
]